Making proper trend graphs
…
By default, synonym search is disabled and only Medline/PubMed index is searched.

Use Cases

Use Case: Growth of Open Access Literature

There is a growing interest in knowing the proportion of open access to scholarly literature. Europe PMC allows searching for open access content with the OPEN_ACCESS:Y parameter. At the moment, Europe PMC contains 1,915,802 open access full-texts. Let’s see how they are relatively distributed over the period 1995 - 2016.

tt_oa <- europepmc::epmc_hits_trend("OPEN_ACCESS:Y", period = 1995:2016, synonym = FALSE)
tt_oa
#> # A tibble: 22 x 3
#>     year all_hits query_hits
#>    <int>    <dbl>      <dbl>
#>  1  1995   448613       2827
#>  2  1996   458180       3082
#>  3  1997   455775       3143
#>  4  1998   473280       3327
#>  5  1999   492902       3347
#>  6  2000   531355       3743
#>  7  2001   544446       4549
#>  8  2002   560848       5303
#>  9  2003   587570       6103
#> 10  2004   627164       8097
#> # ... with 12 more rows
…
and get publications for which Europe PMC gives access to reference lists for normalizing the review graph.

library(dplyr)
my_df <- purrr::map_df(dvcs_query, function(x) {
  # get number of publications with indexed reference lists
  refs_hits <- 
    europepmc::epmc_hits_trend("has_reflist:y", period = 2009:2016, synonym = FALSE)$query_hits
  # get hit count querying for code repositories 
  europepmc::epmc_hits_trend(x, period = 2009:2016, synonym = FALSE) %>% 
    dplyr::mutate(query_id = x) %>%
    dplyr::mutate(refs_hits = refs_hits) %>%
    dplyr::select(year, all_hits, refs_hits, query_hits, query_id)
}) 
my_df
#> # A tibble: 40 x 5
#>     year all_hits refs_hits query_hits query_id                 
#>    <int>    <dbl>     <dbl>      <dbl> <chr>                    
#>  1  2009   792034    536035      13.0  "REF:\"code.google.com\""
#>  2  2010   849169    519841      40.0  "REF:\"code.google.com\""
#>  3  2011   901436    580391      66.0  "REF:\"code.google.com\""
#>  4  2012   943688    610446      91.0  "REF:\"code.google.com\""
#>  5  2013  1001227    740280     136    "REF:\"code.google.com\""
#>  6  2014  1054856    777127     141    "REF:\"code.google.com\""
#>  7  2015  1119091    770816     119    "REF:\"code.google.com\""
#>  8  2016  1101704    729815      63.0  "REF:\"code.google.com\""
#>  9  2009   792034    536035       4.00 "REF:\"github.com\""     
#> 10  2010   849169    519841      10.0  "REF:\"github.com\""     
#> # ... with 30 more rows
…
